100 100
110
1 1 1
1 1 1
1 1 1
1 1 1
1 1 1
1 1 1
1 1 1
1 1 1
1 1 1
1 1 1
200 200 200
200 200 200
200 200 200
200 200 200
200 200 200
200 200 200
200 200 200
200 200 200
200 200 200
200 200 200
200 200 200
200 200 200
200 200 200
200 200 200
200 200 200
200 200 200
200 200 200
200 200 200
200 200 200
200 200 200
200 200 200
200 200 200
200 200 200
200 200 200
200 200 200
200 200 200
200 200 200
200 200 200
200 200 200
200 200 200
200 200 200
200 200 200
200 200 200
200 200 200
200 200 200
200 200 200
200 200 200
200 200 200
200 200 200
200 200 200
200 200 200
200 200 200
200 200 200
200 200 200
200 200 200
200 200 200
200 200 200
200 200 200
200 200 200
200 200 200
200 200 200
200 200 200
200 200 200
200 200 200
200 200 200
200 200 200
200 200 200
200 200 200
200 200 200
200 200 200
200 200 200
200 200 200
200 200 200
200 200 200
200 200 200
200 200 200
200 200 200
200 200 200
200 200 200
200 200 200
200 200 200
200 200 200
200 200 200
200 200 200
200 200 200
200 200 200
200 200 200
200 200 200
200 200 200
200 200 200
200 200 200
200 200 200
200 200 200
200 200 200
200 200 200
200 200 200
200 200 200
200 200 200
200 200 200
200 200 200
200 200 200
200 200 200
200 200 200
200 200 200
200 200 200
200 200 200
200 200 200
200 200 200
200 200 200
200 200 200
